start/stage-m2-maminionja/stage-m2/docs/ghdl/Adder/adder.vcd
$date
  Wed Jul 15 15:51:20 2015
$end
$version
  GHDL v0
$end
$timescale
  1 fs
$end
$var reg 1 ! i0 $end
$var reg 1 " i1 $end
$var reg 1 # ci $end
$var reg 1 $ s $end
$var reg 1 % co $end
$scope module adder_0 $end
$var reg 1 & i0 $end
$var reg 1 ' i1 $end
$var reg 1 ( ci $end
$var reg 1 ) s $end
$var reg 1 * co $end
$upscope $end
$enddefinitions $end
#0
1!
1"
1#
1$
1%
1&
1'
1(
1)
1*
#1000000
0!
0$
0&
0)
#2000000
1!
0"
0#
1$
0%
1&
0'
0(
1)
0*
#3000000
1"
0$
1%
1'
0)
1*
#4000000
0"
1$
0%
0'
1)
0*
#5000000
1"
1#
1%
1'
1(
1*
#6000000
0!
0#
0%
0&
0(
0*
#7000000
0"
1#
0'
1(
#8000000
1!
0#
1&
0(
#9000000
1#
0$
1%
1(
0)
1*
