start/stage-m2-maminionja/stage-m2/docs/ghdl/src/amd_tb.vcd
$date
  Tue Oct 22 12:43:17 2013
$end
$version
  GHDL v0
$end
$timescale
  1 fs
$end
$var reg 9 ! i[8:0] $end
$var reg 4 " d[3:0] $end
$var reg 4 # a[3:0] $end
$var reg 4 $ b[3:0] $end
$var reg 4 % y[3:0] $end
$var reg 1 & noe $end
$var reg 1 ' clk $end
$var reg 1 ( cin $end
$var reg 1 ) ng $end
$var reg 1 * np $end
$var reg 1 + cout $end
$var reg 1 , ovr $end
$var reg 1 - zero $end
$var reg 1 . sign $end
$var reg 1 / q0 $end
$var reg 1 0 q3 $end
$var reg 1 1 r0 $end
$var reg 1 2 r3 $end
$scope module amd2901_vhdl $end
$var reg 9 3 i[8:0] $end
$var reg 4 4 d[3:0] $end
$var reg 4 5 a[3:0] $end
$var reg 4 6 b[3:0] $end
$var reg 4 7 y[3:0] $end
$var reg 1 8 noe $end
$var reg 1 9 clk $end
$var reg 1 : cin $end
$var reg 1 ; ng $end
$var reg 1 < np $end
$var reg 1 = cout $end
$var reg 1 > ovr $end
$var reg 1 ? zero $end
$var reg 1 @ sign $end
$var reg 1 A q0 $end
$var reg 1 B q3 $end
$var reg 1 C r0 $end
$var reg 1 D r3 $end
$var reg 4 E alu_out[3:0] $end
$var reg 4 F ra[3:0] $end
$var reg 4 G rb[3:0] $end
$var reg 4 H r[3:0] $end
$var reg 4 I s[3:0] $end
$var reg 4 J accu[3:0] $end
$comment ram is not handled $end
$var reg 4 K rornotr[3:0] $end
$var reg 4 L sornots[3:0] $end
$var reg 4 M c_sum[3:0] $end
$var reg 4 N sum[3:0] $end
$var reg 4 O p[3:0] $end
$var reg 4 P g[3:0] $end
$var reg 1 Q np_sum $end
$var reg 1 R ng_sum $end
$upscope $end
$enddefinitions $end
#0
b011011111 !
b0000 "
b0000 #
b0000 $
b0000 %
0&
0'
U(
0)
0*
1+
1,
1-
0.
U/
U0
U1
U2
b011011111 3
b0000 4
b0000 5
b0000 6
b0000 7
08
09
U:
0;
0<
1=
1>
1?
0@
UA
UB
UC
UD
b0000 E
bUUUU F
bUUUU G
b0000 H
b0000 I
bUUUU J
b0000 K
b0000 L
b0000 M
b000U N
b0000 O
b0000 P
1Q
1R
#1000000
1'
19
b0000 F
b0000 G
#2000000
b0001 "
b0001 $
b0001 %
0'
0-
b0001 4
b0001 6
b0001 7
09
0?
b0001 E
bUUUU G
b0001 H
b0001 K
b000U M
b00UU N
b0001 O
#3000000
1'
19
b0001 G
#4000000
b0010 "
b0010 $
b0010 %
0'
b0010 4
b0010 6
b0010 7
09
b0010 E
bUUUU G
b0010 H
b0010 K
b0000 M
b001U N
b0010 O
#5000000
1'
19
b0010 G
#6000000
b0011 "
b0011 $
b0011 %
0'
b0011 4
b0011 6
b0011 7
09
b0011 E
bUUUU G
b0011 H
b0011 K
b00UU M
b0UUU N
b0011 O
#7000000
1'
19
b0011 G
#8000000
b0100 "
b0100 $
b0100 %
0'
b0100 4
b0100 6
b0100 7
09
b0100 E
bUUUU G
b0100 H
b0100 K
b0000 M
b010U N
b0100 O
#9000000
1'
19
b0100 G
#10000000
b0101 "
b0101 $
b0101 %
0'
b0101 4
b0101 6
b0101 7
09
b0101 E
bUUUU G
b0101 H
b0101 K
b000U M
b01UU N
b0101 O
#11000000
1'
19
b0101 G
#12000000
b0110 "
b0110 $
b0110 %
0'
b0110 4
b0110 6
b0110 7
09
b0110 E
bUUUU G
b0110 H
b0110 K
b0000 M
b011U N
b0110 O
#13000000
1'
19
b0110 G
#14000000
b0111 "
b0111 $
b0111 %
0'
b0111 4
b0111 6
b0111 7
09
b0111 E
bUUUU G
b0111 H
b0111 K
b0UUU M
bUUUU N
b0111 O
#15000000
1'
19
b0111 G
#16000000
b1000 "
b1000 $
b1000 %
0'
1.
b1000 4
b1000 6
b1000 7
09
1@
b1000 E
bUUUU G
b1000 H
b1000 K
b0000 M
b100U N
b1000 O
#17000000
1'
19
b1000 G
#18000000
b1001 "
b1001 $
b1001 %
0'
b1001 4
b1001 6
b1001 7
09
b1001 E
bUUUU G
b1001 H
b1001 K
b000U M
b10UU N
b1001 O
#19000000
1'
19
b1001 G
#20000000
b1010 "
b1010 $
b1010 %
0'
b1010 4
b1010 6
b1010 7
09
b1010 E
bUUUU G
b1010 H
b1010 K
b0000 M
b101U N
b1010 O
#21000000
1'
19
b1010 G
#22000000
b1011 "
b1011 $
b1011 %
0'
b1011 4
b1011 6
b1011 7
09
b1011 E
bUUUU G
b1011 H
b1011 K
b00UU M
b1UUU N
b1011 O
#23000000
1'
19
b1011 G
#24000000
b1100 "
b1100 $
b1100 %
0'
b1100 4
b1100 6
b1100 7
09
b1100 E
bUUUU G
b1100 H
b1100 K
b0000 M
b110U N
b1100 O
#25000000
1'
19
b1100 G
#26000000
b1101 "
b1101 $
b1101 %
0'
b1101 4
b1101 6
b1101 7
09
b1101 E
bUUUU G
b1101 H
b1101 K
b000U M
b11UU N
b1101 O
#27000000
1'
19
b1101 G
#28000000
b1110 "
b1110 $
b1110 %
0'
b1110 4
b1110 6
b1110 7
09
b1110 E
bUUUU G
b1110 H
b1110 K
b0000 M
b111U N
b1110 O
#29000000
1'
19
b1110 G
#30000000
b1111 "
b1111 $
b1111 %
0'
1)
U+
U,
b1111 4
b1111 6
b1111 7
09
1;
U=
U>
b1111 E
bUUUU G
b1111 H
b1111 K
bUUUU M
bUUUU N
b1111 O
0Q
#31000000
1'
19
b1111 G
#32000000
b000000111 !
b1111 %
0'
0(
0+
0,
1.
b000000111 3
b1111 7
09
0:
0=
0>
1@
b1111 E
b0000 M
b1111 N
#34000000
1'
19
b1111 J
#36000000
b010110100 !
b0101 "
b0111 #
b0110 $
b0111 %
0'
1)
1*
1+
0,
0-
0.
Z/
Z0
Z1
Z2
b010110100 3
b0101 4
b0111 5
b0110 6
b0111 7
09
1;
1<
1=
0>
0?
0@
ZA
ZB
ZC
ZD
b0111 E
b0111 F
b0110 G
b0000 H
b0111 I
b1111 K
b0111 L
b1111 M
b0110 N
b1111 O
b0111 P
0Q
0R
#37000000
#38000000
1'
19
b0111 G
#40000000
b110110010 !
b0011 "
b0110 #
b1100 $
b1111 %
0'
1(
1.
0/
10
11
12
b110110010 3
b0011 4
b0110 5
b1100 6
b1111 7
09
1:
1@
0A
1B
1C
1D
b1111 E
b1100 G
b1111 I
b1111 L
b1111 N
b1111 P
#41000000
#42000000
b1110 %
1'
b1110 7
19
b1110 E
b1111 G
b1110 I
b1110 J
b1110 L
b1110 N
b1110 P
#44000000
b111001001 !
b1000 "
b1001 #
b0110 $
bZZZZ %
1&
0'
1)
1*
0+
1,
01
b111001001 3
b1000 4
b1001 5
b0110 6
bZZZZ 7
18
09
1;
1<
0=
1>
0C
b1110 E
b1001 F
b0111 G
b1001 H
b0111 I
b0110 K
b0111 L
b0111 M
b1110 N
b0111 O
b0110 P
1Q
1R
#45000000
#46000000
1'
0)
1+
0,
0.
02
19
0;
1=
0>
0@
0D
b0011 E
b1100 G
b1100 I
b1100 L
b1100 M
b0011 N
b1110 O
b0100 P
0R
#48000000
b100110100 !
b0011 #
b0111 $
0'
1)
0.
0/
00
11
b100110100 3
b0011 5
b0111 6
09
1;
0@
0A
0B
1C
b0011 E
b0011 F
b0111 G
b0000 H
b0011 I
b1111 K
b0011 L
b1111 M
b0011 N
b1111 O
b0011 P
0Q
#49000000
#50000000
1'
1/
19
1A
b0001 G
b0111 J
#52000000
b100001101 !
b1100 "
b0001 #
b0101 $
0'
1)
1*
0+
0.
12
b100001101 3
b1100 4
b0001 5
b0101 6
09
1;
1<
0=
0@
1D
b0101 E
b0001 F
b0101 G
b1100 H
b0001 I
b0011 K
b0001 L
b0011 M
b0101 N
b0011 O
b0001 P
1Q
1R
#53000000
#54000000
1'
19
b1010 G
b0011 J
#56000000
b010010101 !
b1111 #
b1111 $
b1111 %
0&
0'
0(
1)
0+
0,
1.
Z/
Z0
Z1
Z2
b010010101 3
b1111 5
b1111 6
b1111 7
08
09
0:
1;
0=
0>
1@
ZA
ZB
ZC
ZD
b1100 E
b1111 F
b1111 G
b1111 I
b1100 K
b0000 L
b0000 M
b1100 N
b1100 O
b0000 P
1R
#57000000
#58000000
b1100 %
1'
0*
b1100 7
19
0<
b1111 E
b1100 F
b1100 G
b1100 I
b0011 L
b1111 N
b1111 O
0Q
#60000000
b010001001 !
b0100 "
b1010 #
b0100 $
b1010 %
0'
1(
1*
1,
b010001001 3
b0100 4
b1010 5
b0100 6
b1010 7
09
1:
1<
1>
b1010 E
b1010 F
b0100 G
b1010 H
b0100 I
b0101 K
b0100 L
b0101 M
b1010 N
b0101 O
b0100 P
1Q
#61000000
#62000000
1'
0*
1+
0,
1-
0.
19
0<
1=
0>
1?
0@
b0000 E
b1010 G
b1010 I
b1010 L
b1111 M
b0000 N
b1111 O
b0000 P
0Q
#64000000
b101010101 !
b1000 "
b1100 #
b1110 $
b1000 %
0'
0(
1*
0+
0,
0-
1.
1/
10
01
02
b101010101 3
b1000 4
b1100 5
b1110 6
b1000 7
09
0:
1<
0=
0>
0?
1@
1A
1B
0C
0D
b1000 E
b1111 F
b1110 G
b1000 H
b1111 I
b1000 K
b0000 L
b0000 M
b1000 N
b1000 O
1Q
#65000000
#66000000
1'
19
b0100 G
#68000000
b011100001 !
b1111 "
b1001 #
b0010 $
b0000 %
0'
1)
0*
0+
1,
1-
0.
Z/
Z0
Z1
Z2
b011100001 3
b1111 4
b1001 5
b0010 6
b0000 7
09
1;
0<
0=
1>
1?
0@
ZA
ZB
ZC
ZD
b0000 E
b1001 F
b0010 G
b1001 H
b0010 I
b1001 K
b0010 L
b0000 M
b1011 N
b1011 O
b0000 P
1Q
1R
#69000000
#70000000
1'
19
b0000 G
b0000 I
b0000 L
b1001 N
b1001 O
#72000000
b010000111 !
b1100 "
b1101 #
b1100 $
bZZZZ %
1&
0'
1(
1*
0,
0-
1.
b010000111 3
b1100 4
b1101 5
b1100 6
bZZZZ 7
18
09
1:
1<
0>
0?
1@
b1101 E
b1101 F
b1111 G
b1100 H
b1100 K
b0000 M
b1101 N
b1100 O
#73000000
#74000000
1'
19
b1101 G
#76000000
b110110101 !
b1000 "
b1010 #
b1011 $
0'
0(
1)
1*
1+
0,
0.
1/
00
01
02
b110110101 3
b1000 4
b1010 5
b1011 6
09
0:
1;
1<
1=
0>
0@
1A
0B
0C
0D
b0010 E
b1010 F
b1011 G
b1000 H
b1010 I
b0111 K
b1010 L
b1110 M
b0001 N
b1111 O
b0010 P
0Q
0R
#77000000
#78000000
1'
19
b0100 G
b0111 J
#80000000
b111101101 !
b0111 "
b1011 #
b1010 $
b0000 %
0&
0'
1(
1)
0*
1,
1-
0.
0/
02
b111101101 3
b0111 4
b1011 5
b1010 6
b0000 7
08
09
1:
1;
0<
1>
1?
0@
0A
0D
b0000 E
b0100 F
b1010 G
b0111 H
b0100 I
b1000 K
b0100 L
b0000 M
b1101 N
b1100 O
b0000 P
1Q
1R
#81000000
#82000000
1'
19
b0000 G
#84000000
b100010100 !
b0001 "
b0010 #
b1111 $
bZZZZ %
1&
0'
1)
0*
1+
0,
1-
0.
1/
01
12
b100010100 3
b0001 4
b0010 5
b1111 6
bZZZZ 7
18
09
1;
0<
1=
0>
1?
0@
1A
0C
1D
b0000 E
b0000 F
b1100 G
b0000 H
b0000 I
b0000 K
b1111 L
b1111 M
b0000 N
b1111 O
b0000 P
0Q
1R
#85000000
#86000000
1'
19
b1000 G
b0011 J
#88000000
b101110001 !
b1110 "
b1011 #
b1100 %
0&
0'
1*
1+
0,
0-
1.
b101110001 3
b1110 4
b1011 5
b1100 7
08
09
1<
1=
0>
0?
1@
b1100 E
b0100 F
b0100 H
b1000 I
b1011 K
b1000 L
b1011 M
b0100 N
b1011 O
b1000 P
1Q
0R
#89000000
#90000000
b1010 %
1'
b1010 7
19
b1010 E
b1110 G
b1110 I
b1110 L
b1111 M
b1010 N
b1111 O
b1010 P
0Q
#92000000
b000101010 !
b1001 "
b0011 #
b1110 $
b0011 %
0'
0)
0*
0.
Z/
Z0
Z1
Z2
b000101010 3
b1001 4
b0011 5
b1110 6
b0011 7
09
0;
0<
0@
ZA
ZB
ZC
ZD
b0011 E
b0011 F
b0100 G
b0000 H
b0011 I
b1111 K
b0011 L
b0011 N
b0011 P
#93000000
#94000000
1'
19
#96000000
b001011110 !
b0001 "
b0110 #
b0100 $
bZZZZ %
1&
0'
0(
0)
1+
1,
b001011110 3
b0001 4
b0110 5
b0100 6
bZZZZ 7
18
09
0:
0;
1=
1>
b1100 F
b1010 G
b0001 H
b0001 K
b0011 M
b0100 N
b0011 O
b0001 P
1Q
1R
#97000000
#98000000
1'
19
#100000000
b111110000 !
b0000 "
b1100 #
b0111 $
b1110 %
0&
0'
0)
1*
0+
1,
1.
1/
00
01
12
b111110000 3
b0000 4
b1100 5
b0111 6
b1110 7
08
09
0;
1<
0=
1>
1@
1A
0B
0C
1D
b1110 E
b1101 F
b0001 G
b1101 H
b0010 K
b0010 M
b0101 N
b0011 O
b0010 P
1Q
1R
#101000000
#102000000
1'
19
b1100 G
#104000000
b100000110 !
b0010 "
b0010 #
b1100 $
b0101 %
0'
1)
1*
0,
0.
1/
10
11
b100000110 3
b0010 4
b0010 5
b1100 6
b0101 7
09
1;
1<
0>
0@
1A
1B
1C
b0101 E
b0000 F
b1101 G
b0010 H
b0010 K
b0010 M
b0101 N
b0011 O
b0010 P
1Q
1R
#105000000
#106000000
b1011 %
1'
1.
b1011 7
19
1@
b1011 E
b1010 G
b1001 I
b1001 J
b1001 L
b0000 M
b1011 N
b1011 O
b0000 P
#108000000
b000000000 !
b1000 "
b0100 #
b0101 $
b0100 %
0'
1(
0)
1+
1,
0-
0.
Z/
Z0
Z1
Z2
b000000000 3
b1000 4
b0100 5
b0101 6
b0100 7
09
1:
0;
1=
1>
0?
0@
ZA
ZB
ZC
ZD
b0100 E
b1010 F
b1010 H
b1010 K
b1011 M
b0100 N
b1011 O
b1000 P
0R
#109000000
#110000000
b1111 %
1'
1)
0+
0,
1.
b1111 7
19
1;
0=
0>
1@
b1111 E
b0100 I
b0100 J
b0100 L
b0000 M
b1111 N
b1110 O
b0000 P
1R
#112000000
b100010010 !
b0111 "
b1000 #
b1111 $
bZZZZ %
1&
0'
1)
0+
0,
0-
1.
0/
00
01
12
b100010010 3
b0111 4
b1000 5
b1111 6
bZZZZ 7
18
09
1;
0=
0>
0?
1@
0A
0B
0C
1D
b1100 E
b1000 F
b1110 G
b0000 H
b0000 K
b1011 L
b0011 M
b1100 N
b1011 O
b0000 P
1R
#113000000
#114000000
1'
0+
0,
1.
19
0=
0>
1@
b1110 E
b0010 I
b0010 J
b1101 L
b0001 M
b1110 N
b1101 O
#116000000
b101100010 !
b0011 "
b1011 #
b0001 $
b0000 %
0&
0'
0(
0*
1,
1-
0.
02
b101100010 3
b0011 4
b1011 5
b0001 6
b0000 7
08
09
0:
0<
1>
1?
0@
0D
b0000 E
b0100 F
b0001 G
b0010 L
b0000 M
b0010 N
b0010 O
#117000000
#118000000
1'
19
b0000 G
#120000000
b101101110 !
b1001 "
b1000 #
b1110 $
bZZZZ %
1&
0'
0)
1+
0-
b101101110 3
b1001 4
b1000 5
b1110 6
bZZZZ 7
18
09
0;
1=
0?
b0010 E
b1000 F
b0100 G
b1001 H
b0110 K
b0110 M
b1000 N
b0110 O
b0010 P
1Q
1R
#121000000
#122000000
1'
19
b0001 G
#124000000
b100001100 !
b1101 "
b0111 #
b1011 %
0&
0'
0)
0*
1+
0,
1.
11
12
b100001100 3
b1101 4
b0111 5
b1011 7
08
09
0;
0<
1=
0>
1@
1C
1D
b1011 E
b1100 F
b0000 H
b1100 I
b1111 K
b1100 L
b1100 M
b1011 N
b1111 O
b1100 P
0Q
0R
#125000000
#126000000
1'
1/
19
1A
b1101 G
b0001 J
#128000000
b011110100 !
b0011 "
b1101 #
b1000 $
bZZZZ %
1&
0'
1(
1)
1*
Z/
Z0
Z1
Z2
b011110100 3
b0011 4
b1101 5
b1000 6
bZZZZ 7
18
09
1:
1;
1<
ZA
ZB
ZC
ZD
b1101 E
b1101 F
b1000 G
b1101 I
b1101 L
b1111 M
b1101 N
b1101 P
#129000000
#130000000
1'
19
b1101 G
#132000000
b011100000 !
b1111 "
b0110 #
b0111 $
0'
0(
1)
0*
0+
1,
1-
0.
b011100000 3
b1111 4
b0110 5
b0111 6
09
0:
1;
0<
0=
1>
1?
0@
b0000 E
b1100 F
b1100 G
b1100 H
b0001 I
b1100 K
b0001 L
b0000 M
b1101 N
b1101 O
b0000 P
1Q
1R
#133000000
#134000000
1'
19
b0000 G
#136000000
b100100010 !
b0101 "
b1010 #
b0101 $
b0000 %
0&
0'
1/
10
01
02
b100100010 3
b0101 4
b1010 5
b0101 6
b0000 7
08
09
1A
1B
0C
0D
b0000 F
b1010 G
b0000 H
b0000 K
b0001 N
b0001 O
#137000000
#138000000
1'
0/
19
0A
b0000 G
b1000 I
b1000 J
b1000 L
b1000 N
b1000 O
#140000000
b111001111 !
b1001 "
b1110 #
b0010 $
b0110 %
0'
1)
1*
0+
0,
0-
0.
10
02
b111001111 3
b1001 4
b1110 5
b0010 6
b0110 7
09
1;
1<
0=
0>
0?
0@
1B
0D
b0110 E
b1101 F
b1001 H
b0000 I
b0110 K
b0000 L
b0000 M
b0110 N
b0110 O
b0000 P
1Q
1R
#141000000
#142000000
1'
19
b1100 G
#144000000
b011010111 !
b0010 "
b0011 #
b0110 $
bZZZZ %
1&
0'
1(
0)
0*
1+
0,
0.
Z/
Z0
Z1
Z2
b011010111 3
b0010 4
b0011 5
b0110 6
bZZZZ 7
18
09
1:
0;
0<
1=
0>
0@
ZA
ZB
ZC
ZD
b0010 E
b0011 F
b0010 H
b0010 K
b1111 L
b1111 M
b0010 N
b1111 O
b0010 P
0Q
0R
#145000000
#146000000
1'
19
b0010 G
#148000000
b111001100 !
b0011 $
0'
0(
0)
0*
1+
0,
0.
1/
10
11
02
b111001100 3
b0011 6
09
0:
0;
0<
1=
0>
0@
1A
1B
1C
0D
b0010 E
b0011 G
b0000 H
b0011 I
b1111 K
b0011 L
b1111 M
b0010 N
b1111 O
b0011 P
0Q
0R
#149000000
#150000000
1'
19
b0100 E
b0101 F
b0101 G
b0101 I
b0101 L
b0100 N
b0101 P
#152000000
b011111101 !
b0111 "
b1111 #
b1001 $
b0110 %
0&
0'
1(
1)
1*
1+
0,
0.
Z/
Z0
Z1
Z2
b011111101 3
b0111 4
b1111 5
b1001 6
b0110 7
08
09
1:
1;
1<
1=
0>
0@
ZA
ZB
ZC
ZD
b0110 E
b1110 F
b1001 G
b0111 H
b1110 I
b0111 K
b1110 L
b1111 M
b0110 N
b1111 O
b0110 P
0Q
0R
#153000000
#154000000
1'
19
b0110 G
#156000000
b001111100 !
b0100 "
b1001 #
b1100 $
b1001 %
0'
0)
0*
0+
1,
1.
b001111100 3
b0100 4
b1001 5
b1100 6
b1001 7
09
0;
0<
0=
1>
1@
b1001 E
b0110 F
b1010 G
b0000 H
b0110 I
b0000 K
b0110 L
b0000 M
b0111 N
b0110 O
b0000 P
1Q
1R
#157000000
#158000000
1'
19
#160000000
b010000000 !
b0111 "
b1010 #
b1001 $
b0000 %
0'
1)
1*
0,
1.
b010000000 3
b0111 4
b1010 5
b1001 6
b0000 7
09
1;
1<
0>
1@
b1001 E
b0000 F
b0110 G
b0000 H
b1000 I
b0000 K
b1000 L
b1001 N
b1000 O
#161000000
#162000000
1'
19
b1001 G
#164000000
b010101111 !
b1011 "
b0110 #
b0110 $
bZZZZ %
1&
0'
1)
0*
1+
1,
1-
0.
b010101111 3
b1011 4
b0110 5
b0110 6
bZZZZ 7
18
09
1;
0<
1=
1>
1?
0@
b0000 E
b0010 F
b0010 G
b1011 H
b0000 I
b0100 K
b0000 L
b0000 M
b0101 N
b0100 O
b0000 P
1Q
1R
#165000000
#166000000
1'
19
b0000 F
b0000 G
#168000000
b001000101 !
b1101 "
b0010 #
b0011 $
0'
0)
1*
1+
0,
0-
1.
b001000101 3
b1101 4
b0010 5
b0011 6
09
0;
1<
1=
0>
0?
1@
b1010 E
b1100 F
b0101 G
b1101 H
b1100 I
b1101 K
b1100 L
b1101 M
b1010 N
b1101 O
b1100 P
0R
#169000000
#170000000
1'
19
#172000000
b110110101 !
b0000 "
b1101 #
b0000 $
b1101 %
0&
0'
0(
1)
1*
1+
0,
1.
1/
10
01
12
b110110101 3
b0000 4
b1101 5
b0000 6
b1101 7
08
09
0:
1;
1<
1=
0>
1@
1A
1B
0C
1D
b1101 E
b1101 F
b0000 G
b0000 H
b1101 I
b1111 K
b1101 L
b1111 M
b1100 N
b1111 O
b1101 P
0Q
0R
#173000000
#174000000
1'
00
19
0B
b1010 G
b0001 J
#176000000
b110111101 !
b0111 "
b0111 #
b1011 $
b1000 %
0'
0)
0*
0+
1,
1.
11
12
b110111101 3
b0111 4
b0111 5
b1011 6
b1000 7
09
0;
0<
0=
1>
1@
1C
1D
b1000 E
b0000 F
b0100 G
b0111 H
b0000 I
b0111 K
b0000 L
b0000 M
b0111 N
b0111 O
b0000 P
1Q
1R
#177000000
#178000000
1'
19
b0001 G
b0011 J
#180000000
b011011011 !
b1010 "
b0001 #
b0011 $
bZZZZ %
1&
0'
1(
1+
0.
Z/
Z0
Z1
Z2
b011011011 3
b1010 4
b0001 5
b0011 6
bZZZZ 7
18
09
1:
1=
0@
ZA
ZB
ZC
ZD
b0101 E
b0101 G
b0000 H
b0101 I
b0000 K
b0101 L
b0001 M
b0110 N
b0101 O
#181000000
#182000000
1'
19
#184000000
b000111110 !
b0100 "
b1000 #
b0101 $
0'
0(
0+
1.
b000111110 3
b0100 4
b1000 5
b0101 6
09
0:
0=
1@
b1000 E
b1101 F
b0000 G
b0100 H
b0011 I
b0100 K
b0011 L
b0000 M
b0111 N
b0111 O
#185000000
#186000000
1'
0.
19
0@
b0011 E
b1000 I
b1000 J
b1000 L
b1100 N
b1100 O
#188000000
b100010011 !
b0000 "
b0011 #
b1010 $
0'
1(
1)
0*
1+
0,
1-
0.
0/
10
01
02
b100010011 3
b0000 4
b0011 5
b1010 6
09
1:
1;
0<
1=
0>
1?
0@
0A
1B
0C
0D
b0000 E
b0101 F
b0000 H
b0000 I
b0000 K
b1111 L
b1111 M
b0000 N
b1111 O
b0000 P
0Q
#189000000
#190000000
1'
19
b1100 J
#192000000
b110111101 !
b1001 "
b1010 #
b0101 $
b0110 %
0&
0'
0)
0*
0+
1,
0-
0.
10
11
02
b110111101 3
b1001 4
b1010 5
b0101 6
b0110 7
08
09
0;
0<
0=
1>
0?
0@
1B
1C
0D
b0110 E
b0000 F
b1001 H
b0000 I
b1001 K
b0000 L
b0001 M
b1010 N
b1001 O
b0000 P
1Q
#193000000
#194000000
1'
19
b1101 G
b1000 J
#196000000
b011000110 !
b0001 "
b0101 #
b0010 $
b1010 %
0'
1)
1*
0,
1.
Z/
Z0
Z1
Z2
b011000110 3
b0001 4
b0101 5
b0010 6
b1010 7
09
1;
1<
0>
1@
ZA
ZB
ZC
ZD
b1010 E
b1101 F
b1100 G
b0001 H
b1000 I
b0001 K
b1000 L
#197000000
#198000000
1'
19
b1010 G
#200000000
b011001000 !
b1001 "
b1101 #
b0101 $
b1010 %
0'
0(
1)
0+
0,
1.
b011001000 3
b1001 4
b1101 5
b0101 6
b1010 7
09
0:
1;
0=
0>
1@
b1010 E
b1101 G
b1101 H
b0010 K
b0000 M
b1010 N
b1010 O
b0000 P
1R
#201000000
#202000000
1'
19
b1010 G
#204000000
b110101011 !
b0001 "
b0101 #
b0000 $
b1010 %
0'
1(
0)
0*
1+
0,
0-
1.
1/
10
11
12
b110101011 3
b0001 4
b0101 5
b0000 6
b1010 7
09
1:
0;
0<
1=
0>
0?
1@
1A
1B
1C
1D
b1010 E
b1010 F
b0000 H
b1010 I
b1111 K
b1010 L
b1111 M
b1010 N
b1111 O
b1010 P
0Q
0R
#205000000
#206000000
b0101 %
1'
0.
00
02
b0101 7
19
0@
0B
0D
b0101 E
b0101 G
b0101 I
b0001 J
b0101 L
b0101 N
b0101 P
#208000000
b111011010 !
b0011 "
b0111 #
b0001 $
b0001 %
0'
0(
0)
1+
1,
0/
b111011010 3
b0011 4
b0111 5
b0001 6
b0001 7
09
0:
0;
1=
1>
0A
b0001 E
b0000 F
b0000 G
b0001 I
b0000 K
b0001 L
b0000 M
b0001 N
b0001 O
b0000 P
1Q
1R
#209000000
#210000000
1'
19
b0011 G
#212000000
b000111010 !
b1000 "
b1000 #
b0101 $
bZZZZ %
1&
0'
0+
1.
Z/
Z0
Z1
Z2
b000111010 3
b1000 4
b1000 5
b0101 6
bZZZZ 7
18
09
0=
1@
ZA
ZB
ZC
ZD
b1110 E
b1101 F
b1010 G
#213000000
#214000000
1'
0.
19
0@
b0001 E
b1110 I
b1110 J
b1110 L
b1110 N
b1110 O
#216000000
b111010101 !
b1010 "
b1001 #
b1110 $
0'
0)
1*
1+
0,
1-
0.
1/
10
01
02
b111010101 3
b1010 4
b1001 5
b1110 6
09
0;
1<
1=
0>
1?
0@
1A
1B
0C
0D
b0000 E
b1001 F
b1101 G
b1010 H
b1001 I
b1010 K
b0110 L
b1110 M
b0000 N
b1110 O
b0010 P
0R
#217000000
#218000000
1'
19
b0000 G
#220000000
b000111000 !
b0100 "
b1110 #
b0101 $
0'
1(
0)
0*
0+
1,
0-
0.
Z/
Z0
Z1
Z2
b000111000 3
b0100 4
b1110 5
b0101 6
09
1:
0;
0<
0=
1>
0?
0@
ZA
ZB
ZC
ZD
b0001 E
b0000 F
b1010 G
b0000 H
b1110 I
b0000 K
b1110 L
b0000 M
b1111 N
b1110 O
b0000 P
1Q
1R
#221000000
#222000000
1'
1.
19
1@
b1110 E
b0001 I
b0001 J
b0001 L
b0001 M
b0010 N
b0001 O
#224000000
b000101010 !
b1000 "
b0100 #
b1101 $
0'
0)
1+
0,
0.
b000101010 3
b1000 4
b0100 5
b1101 6
09
0;
1=
0>
0@
b0001 E
b1010 F
b1101 G
b1111 K
b1111 M
b0001 N
b1111 O
b0001 P
0Q
0R
#225000000
#226000000
1'
19
#228000000
b011011011 !
b1101 "
b1011 #
b1010 $
b0000 %
0&
0'
0)
1,
1-
0.
b011011011 3
b1101 4
b1011 5
b1010 6
b0000 7
08
09
0;
1>
1?
0@
b0000 E
b0001 F
b0000 G
b0000 I
b0000 K
b0000 L
b0000 M
b0001 N
b0000 O
b0000 P
1Q
1R
#229000000
#230000000
1'
19
#232000000
b000111000 !
b1100 "
b0010 #
b1011 $
b0100 %
0'
0(
0*
0+
0-
0.
b000111000 3
b1100 4
b0010 5
b1011 6
b0100 7
09
0:
0<
0=
0?
0@
b0100 E
b1010 F
b0001 G
b1010 H
b0001 I
b1010 K
b0001 L
b0000 M
b1011 N
b1011 O
b0000 P
#233000000
#234000000
b0001 %
1'
b0001 7
19
b0001 E
b0100 I
b0100 J
b0100 L
b1110 N
b1110 O
#236000000
b100111101 !
b0000 "
b1101 #
b1100 $
b0010 %
0'
0/
10
01
02
b100111101 3
b0000 4
b1101 5
b1100 6
b0010 7
09
0A
1B
0C
0D
b0010 E
b1101 F
b1010 G
b0000 H
b1101 I
b0000 K
b1101 L
b1101 N
b1101 O
#237000000
#238000000
1'
19
b0001 G
b1010 J
#240000000
b000111110 !
b0110 #
b0101 %
0'
Z/
Z0
Z1
Z2
b000111110 3
b0110 5
b0101 7
09
ZA
ZB
ZC
ZD
b0101 E
b0000 F
b1010 I
b1010 L
b1010 N
b1010 O
#241000000
#242000000
b1010 %
1'
1.
b1010 7
19
1@
b1010 E
b0101 I
b0101 J
b0101 L
b0101 N
b0101 O
#244000000
b110100111 !
b0110 "
b1011 #
b1001 $
b0000 %
0'
1)
1-
0.
0/
00
01
02
b110100111 3
b0110 4
b1011 5
b1001 6
b0000 7
09
1;
1?
0@
0A
0B
0C
0D
b0000 E
b0001 F
b1001 G
b0110 H
b0000 I
b0110 K
b0000 L
b0110 N
b0110 O
#245000000
#246000000
1'
10
19
1B
b0000 G
b1010 J
#248000000
b001001001 !
b1110 "
b0100 #
b1011 $
bZZZZ %
1&
0'
1(
1*
0,
0-
0.
Z/
Z0
Z1
Z2
b001001001 3
b1110 4
b0100 5
b1011 6
bZZZZ 7
18
09
1:
1<
0>
0?
0@
ZA
ZB
ZC
ZD
b0111 E
b1010 F
b0001 G
b1010 H
b0001 I
b0101 K
b0001 L
b0001 M
b0111 N
b0101 O
b0001 P
#249000000
#250000000
1'
19
#252000000
b100110010 !
b0100 "
b0101 $
b1010 %
0&
0'
1)
1+
0,
1.
0/
10
01
12
b100110010 3
b0100 4
b0101 6
b1010 7
08
09
1;
1=
0>
1@
0A
1B
0C
1D
b1010 E
b1010 G
b0000 H
b1010 I
b1111 K
b1010 L
b1111 M
b1010 N
b1111 O
b1010 P
0Q
0R
#253000000
#254000000
b1101 %
1'
1/
11
b1101 7
19
1A
1C
b1101 E
b1101 G
b1101 I
b1101 J
b1101 L
b1101 N
b1101 P
#256000000
b010001000 !
b0110 "
b0001 #
b0001 $
bZZZZ %
1&
0'
0)
1*
1.
Z/
Z0
Z1
Z2
b010001000 3
b0110 4
b0001 5
b0001 6
bZZZZ 7
18
09
0;
1<
1@
ZA
ZB
ZC
ZD
b1010 E
b0011 F
b0011 G
b0011 H
b1100 K
b1101 M
b1010 N
b1101 O
b1100 P
1Q
#257000000
#258000000
1'
0.
19
0@
b0011 E
b1010 F
b1010 G
b1010 H
b0101 K
b0011 N
b0101 P
